-- Merging decision tree log ---
manifest
ADDED from /Users/tuyendn/Desktop/Duc/tuibagang-android/app/src/main/AndroidManifest.xml:2:1-57:12
	xmlns:android
		ADDED from /Users/tuyendn/Desktop/Duc/tuibagang-android/app/src/main/AndroidManifest.xml:2:11-69
	package
		ADDED from /Users/tuyendn/Desktop/Duc/tuibagang-android/app/src/main/AndroidManifest.xml:3:5-37
		INJECTED from /Users/tuyendn/Desktop/Duc/tuibagang-android/app/src/main/AndroidManifest.xml
		INJECTED from /Users/tuyendn/Desktop/Duc/tuibagang-android/app/src/main/AndroidManifest.xml
	android:versionName
		INJECTED from /Users/tuyendn/Desktop/Duc/tuibagang-android/app/src/main/AndroidManifest.xml
		INJECTED from /Users/tuyendn/Desktop/Duc/tuibagang-android/app/src/main/AndroidManifest.xml
	android:versionCode
		INJECTED from /Users/tuyendn/Desktop/Duc/tuibagang-android/app/src/main/AndroidManifest.xml
		INJECTED from /Users/tuyendn/Desktop/Duc/tuibagang-android/app/src/main/AndroidManifest.xml
uses-permission#android.permission.READ_PHONE_STATE
ADDED from /Users/tuyendn/Desktop/Duc/tuibagang-android/app/src/main/AndroidManifest.xml:5:5-75
	android:name
		ADDED from /Users/tuyendn/Desktop/Duc/tuibagang-android/app/src/main/AndroidManifest.xml:5:22-72
uses-permission#android.permission.INTERNET
ADDED from /Users/tuyendn/Desktop/Duc/tuibagang-android/app/src/main/AndroidManifest.xml:6:5-67
MERGED from [com.google.android.gms:play-services-ads:8.3.0] /Users/tuyendn/Desktop/Duc/tuibagang-android/app/build/intermediates/exploded-aar/com.google.android.gms/play-services-ads/8.3.0/AndroidManifest.xml:20:5-66
MERGED from [com.google.android.gms:play-services-gcm:8.3.0] /Users/tuyendn/Desktop/Duc/tuibagang-android/app/build/intermediates/exploded-aar/com.google.android.gms/play-services-gcm/8.3.0/AndroidManifest.xml:22:5-67
MERGED from [com.google.android.gms:play-services-measurement:8.3.0] /Users/tuyendn/Desktop/Duc/tuibagang-android/app/build/intermediates/exploded-aar/com.google.android.gms/play-services-measurement/8.3.0/AndroidManifest.xml:21:5-67
	android:name
		ADDED from /Users/tuyendn/Desktop/Duc/tuibagang-android/app/src/main/AndroidManifest.xml:6:22-64
uses-permission#android.permission.ACCESS_FINE_LOCATION
ADDED from /Users/tuyendn/Desktop/Duc/tuibagang-android/app/src/main/AndroidManifest.xml:9:5-79
	android:name
		ADDED from /Users/tuyendn/Desktop/Duc/tuibagang-android/app/src/main/AndroidManifest.xml:9:22-76
uses-permission#android.permission.BLUETOOTH
ADDED from /Users/tuyendn/Desktop/Duc/tuibagang-android/app/src/main/AndroidManifest.xml:10:5-68
	android:name
		ADDED from /Users/tuyendn/Desktop/Duc/tuibagang-android/app/src/main/AndroidManifest.xml:10:22-65
application
ADDED from /Users/tuyendn/Desktop/Duc/tuibagang-android/app/src/main/AndroidManifest.xml:12:5-55:19
MERGED from [com.android.support:appcompat-v7:23.3.0] /Users/tuyendn/Desktop/Duc/tuibagang-android/app/build/intermediates/exploded-aar/com.android.support/appcompat-v7/23.3.0/AndroidManifest.xml:25:5-20
MERGED from [com.android.support:support-vector-drawable:23.3.0] /Users/tuyendn/Desktop/Duc/tuibagang-android/app/build/intermediates/exploded-aar/com.android.support/support-vector-drawable/23.3.0/AndroidManifest.xml:7:5-20
MERGED from [com.android.support:support-v4:23.3.0] /Users/tuyendn/Desktop/Duc/tuibagang-android/app/build/intermediates/exploded-aar/com.android.support/support-v4/23.3.0/AndroidManifest.xml:22:5-20
MERGED from [com.android.support:animated-vector-drawable:23.3.0] /Users/tuyendn/Desktop/Duc/tuibagang-android/app/build/intermediates/exploded-aar/com.android.support/animated-vector-drawable/23.3.0/AndroidManifest.xml:7:5-20
MERGED from [com.android.support:support-vector-drawable:23.3.0] /Users/tuyendn/Desktop/Duc/tuibagang-android/app/build/intermediates/exploded-aar/com.android.support/support-vector-drawable/23.3.0/AndroidManifest.xml:7:5-20
MERGED from [com.android.support:support-v4:23.3.0] /Users/tuyendn/Desktop/Duc/tuibagang-android/app/build/intermediates/exploded-aar/com.android.support/support-v4/23.3.0/AndroidManifest.xml:22:5-20
MERGED from [com.android.support:support-v4:23.3.0] /Users/tuyendn/Desktop/Duc/tuibagang-android/app/build/intermediates/exploded-aar/com.android.support/support-v4/23.3.0/AndroidManifest.xml:22:5-20
MERGED from [com.android.support:design:23.3.0] /Users/tuyendn/Desktop/Duc/tuibagang-android/app/build/intermediates/exploded-aar/com.android.support/design/23.3.0/AndroidManifest.xml:22:5-20
MERGED from [com.android.support:appcompat-v7:23.3.0] /Users/tuyendn/Desktop/Duc/tuibagang-android/app/build/intermediates/exploded-aar/com.android.support/appcompat-v7/23.3.0/AndroidManifest.xml:25:5-20
MERGED from [com.android.support:support-vector-drawable:23.3.0] /Users/tuyendn/Desktop/Duc/tuibagang-android/app/build/intermediates/exploded-aar/com.android.support/support-vector-drawable/23.3.0/AndroidManifest.xml:7:5-20
MERGED from [com.android.support:support-v4:23.3.0] /Users/tuyendn/Desktop/Duc/tuibagang-android/app/build/intermediates/exploded-aar/com.android.support/support-v4/23.3.0/AndroidManifest.xml:22:5-20
MERGED from [com.android.support:animated-vector-drawable:23.3.0] /Users/tuyendn/Desktop/Duc/tuibagang-android/app/build/intermediates/exploded-aar/com.android.support/animated-vector-drawable/23.3.0/AndroidManifest.xml:7:5-20
MERGED from [com.android.support:support-vector-drawable:23.3.0] /Users/tuyendn/Desktop/Duc/tuibagang-android/app/build/intermediates/exploded-aar/com.android.support/support-vector-drawable/23.3.0/AndroidManifest.xml:7:5-20
MERGED from [com.android.support:support-v4:23.3.0] /Users/tuyendn/Desktop/Duc/tuibagang-android/app/build/intermediates/exploded-aar/com.android.support/support-v4/23.3.0/AndroidManifest.xml:22:5-20
MERGED from [com.android.support:support-v4:23.3.0] /Users/tuyendn/Desktop/Duc/tuibagang-android/app/build/intermediates/exploded-aar/com.android.support/support-v4/23.3.0/AndroidManifest.xml:22:5-20
MERGED from [com.android.support:support-v4:23.3.0] /Users/tuyendn/Desktop/Duc/tuibagang-android/app/build/intermediates/exploded-aar/com.android.support/support-v4/23.3.0/AndroidManifest.xml:22:5-20
MERGED from [com.android.support:support-v4:23.3.0] /Users/tuyendn/Desktop/Duc/tuibagang-android/app/build/intermediates/exploded-aar/com.android.support/support-v4/23.3.0/AndroidManifest.xml:22:5-20
MERGED from [com.google.android.gms:play-services-ads:8.3.0] /Users/tuyendn/Desktop/Duc/tuibagang-android/app/build/intermediates/exploded-aar/com.google.android.gms/play-services-ads/8.3.0/AndroidManifest.xml:24:5-32:19
MERGED from [com.google.android.gms:play-services-basement:8.3.0] /Users/tuyendn/Desktop/Duc/tuibagang-android/app/build/intermediates/exploded-aar/com.google.android.gms/play-services-basement/8.3.0/AndroidManifest.xml:20:5-24:19
MERGED from [com.android.support:support-v4:23.3.0] /Users/tuyendn/Desktop/Duc/tuibagang-android/app/build/intermediates/exploded-aar/com.android.support/support-v4/23.3.0/AndroidManifest.xml:22:5-20
MERGED from [com.google.android.gms:play-services-gcm:8.3.0] /Users/tuyendn/Desktop/Duc/tuibagang-android/app/build/intermediates/exploded-aar/com.google.android.gms/play-services-gcm/8.3.0/AndroidManifest.xml:24:5-20
MERGED from [com.google.android.gms:play-services-basement:8.3.0] /Users/tuyendn/Desktop/Duc/tuibagang-android/app/build/intermediates/exploded-aar/com.google.android.gms/play-services-basement/8.3.0/AndroidManifest.xml:20:5-24:19
MERGED from [com.android.support:support-v4:23.3.0] /Users/tuyendn/Desktop/Duc/tuibagang-android/app/build/intermediates/exploded-aar/com.android.support/support-v4/23.3.0/AndroidManifest.xml:22:5-20
MERGED from [com.google.android.gms:play-services-measurement:8.3.0] /Users/tuyendn/Desktop/Duc/tuibagang-android/app/build/intermediates/exploded-aar/com.google.android.gms/play-services-measurement/8.3.0/AndroidManifest.xml:26:5-46:19
MERGED from [com.google.android.gms:play-services-basement:8.3.0] /Users/tuyendn/Desktop/Duc/tuibagang-android/app/build/intermediates/exploded-aar/com.google.android.gms/play-services-basement/8.3.0/AndroidManifest.xml:20:5-24:19
MERGED from [com.android.support:support-v4:23.3.0] /Users/tuyendn/Desktop/Duc/tuibagang-android/app/build/intermediates/exploded-aar/com.android.support/support-v4/23.3.0/AndroidManifest.xml:22:5-20
MERGED from [com.facebook.android:facebook-android-sdk:4.7.0] /Users/tuyendn/Desktop/Duc/tuibagang-android/app/build/intermediates/exploded-aar/com.facebook.android/facebook-android-sdk/4.7.0/AndroidManifest.xml:28:5-20
MERGED from [com.android.support:support-v4:23.3.0] /Users/tuyendn/Desktop/Duc/tuibagang-android/app/build/intermediates/exploded-aar/com.android.support/support-v4/23.3.0/AndroidManifest.xml:22:5-20
MERGED from [com.github.orangegangsters:swipy:1.2.0] /Users/tuyendn/Desktop/Duc/tuibagang-android/app/build/intermediates/exploded-aar/com.github.orangegangsters/swipy/1.2.0/AndroidManifest.xml:11:5-12:19
MERGED from [org.lucasr.twowayview:twowayview:0.1.4] /Users/tuyendn/Desktop/Duc/tuibagang-android/app/build/intermediates/exploded-aar/org.lucasr.twowayview/twowayview/0.1.4/AndroidManifest.xml:26:5-20
MERGED from [com.android.support:support-v4:23.3.0] /Users/tuyendn/Desktop/Duc/tuibagang-android/app/build/intermediates/exploded-aar/com.android.support/support-v4/23.3.0/AndroidManifest.xml:22:5-20
	android:supportsRtl
		ADDED from /Users/tuyendn/Desktop/Duc/tuibagang-android/app/src/main/AndroidManifest.xml:16:9-35
	android:label
		ADDED from /Users/tuyendn/Desktop/Duc/tuibagang-android/app/src/main/AndroidManifest.xml:15:9-41
	android:allowBackup
		ADDED from /Users/tuyendn/Desktop/Duc/tuibagang-android/app/src/main/AndroidManifest.xml:13:9-35
	android:icon
		ADDED from /Users/tuyendn/Desktop/Duc/tuibagang-android/app/src/main/AndroidManifest.xml:14:9-42
	android:theme
		ADDED from /Users/tuyendn/Desktop/Duc/tuibagang-android/app/src/main/AndroidManifest.xml:17:9-40
meta-data#com.facebook.sdk.ApplicationId
ADDED from /Users/tuyendn/Desktop/Duc/tuibagang-android/app/src/main/AndroidManifest.xml:18:9-20:46
	android:name
		ADDED from /Users/tuyendn/Desktop/Duc/tuibagang-android/app/src/main/AndroidManifest.xml:19:13-58
	android:value
		ADDED from /Users/tuyendn/Desktop/Duc/tuibagang-android/app/src/main/AndroidManifest.xml:20:13-43
activity#com.kiemtien.tuibagang.splashscreen.SplashScreen
ADDED from /Users/tuyendn/Desktop/Duc/tuibagang-android/app/src/main/AndroidManifest.xml:22:9-30:20
	android:label
		ADDED from /Users/tuyendn/Desktop/Duc/tuibagang-android/app/src/main/AndroidManifest.xml:24:13-45
	android:theme
		ADDED from /Users/tuyendn/Desktop/Duc/tuibagang-android/app/src/main/AndroidManifest.xml:25:13-56
	android:name
		ADDED from /Users/tuyendn/Desktop/Duc/tuibagang-android/app/src/main/AndroidManifest.xml:23:13-76
intent-filter#android.intent.action.MAIN+android.intent.category.LAUNCHER
ADDED from /Users/tuyendn/Desktop/Duc/tuibagang-android/app/src/main/AndroidManifest.xml:26:13-29:29
action#android.intent.action.MAIN
ADDED from /Users/tuyendn/Desktop/Duc/tuibagang-android/app/src/main/AndroidManifest.xml:27:17-69
	android:name
		ADDED from /Users/tuyendn/Desktop/Duc/tuibagang-android/app/src/main/AndroidManifest.xml:27:25-66
category#android.intent.category.LAUNCHER
ADDED from /Users/tuyendn/Desktop/Duc/tuibagang-android/app/src/main/AndroidManifest.xml:28:17-77
	android:name
		ADDED from /Users/tuyendn/Desktop/Duc/tuibagang-android/app/src/main/AndroidManifest.xml:28:27-74
activity#com.kiemtien.tuibagang.MainActivity
ADDED from /Users/tuyendn/Desktop/Duc/tuibagang-android/app/src/main/AndroidManifest.xml:31:9-35:55
	android:windowSoftInputMode
		ADDED from /Users/tuyendn/Desktop/Duc/tuibagang-android/app/src/main/AndroidManifest.xml:34:13-52
	android:label
		ADDED from /Users/tuyendn/Desktop/Duc/tuibagang-android/app/src/main/AndroidManifest.xml:33:13-45
	android:theme
		ADDED from /Users/tuyendn/Desktop/Duc/tuibagang-android/app/src/main/AndroidManifest.xml:35:9-52
	android:name
		ADDED from /Users/tuyendn/Desktop/Duc/tuibagang-android/app/src/main/AndroidManifest.xml:32:13-63
activity#com.kiemtien.tuibagang.login.LoginActivity
ADDED from /Users/tuyendn/Desktop/Duc/tuibagang-android/app/src/main/AndroidManifest.xml:36:9-39:59
	android:label
		ADDED from /Users/tuyendn/Desktop/Duc/tuibagang-android/app/src/main/AndroidManifest.xml:38:13-45
	android:theme
		ADDED from /Users/tuyendn/Desktop/Duc/tuibagang-android/app/src/main/AndroidManifest.xml:39:13-56
	android:name
		ADDED from /Users/tuyendn/Desktop/Duc/tuibagang-android/app/src/main/AndroidManifest.xml:37:13-70
activity#com.facebook.FacebookActivity
ADDED from /Users/tuyendn/Desktop/Duc/tuibagang-android/app/src/main/AndroidManifest.xml:40:9-44:75
	android:label
		ADDED from /Users/tuyendn/Desktop/Duc/tuibagang-android/app/src/main/AndroidManifest.xml:43:13-45
	android:configChanges
		ADDED from /Users/tuyendn/Desktop/Duc/tuibagang-android/app/src/main/AndroidManifest.xml:42:13-96
	android:theme
		ADDED from /Users/tuyendn/Desktop/Duc/tuibagang-android/app/src/main/AndroidManifest.xml:44:13-72
	android:name
		ADDED from /Users/tuyendn/Desktop/Duc/tuibagang-android/app/src/main/AndroidManifest.xml:41:13-57
receiver#com.kiemtien.tuibagang.gcm.GcmBroadcastReceiver
ADDED from /Users/tuyendn/Desktop/Duc/tuibagang-android/app/src/main/AndroidManifest.xml:45:9-53:20
	android:permission
		ADDED from /Users/tuyendn/Desktop/Duc/tuibagang-android/app/src/main/AndroidManifest.xml:47:13-73
	android:name
		ADDED from /Users/tuyendn/Desktop/Duc/tuibagang-android/app/src/main/AndroidManifest.xml:46:13-75
intent-filter#com.google.android.c2dm.intent.RECEIVE+com.google.android.c2dm.intent.REGISTRATION+com.kiemtien.tuibagang
ADDED from /Users/tuyendn/Desktop/Duc/tuibagang-android/app/src/main/AndroidManifest.xml:48:13-52:29
action#com.google.android.c2dm.intent.RECEIVE
ADDED from /Users/tuyendn/Desktop/Duc/tuibagang-android/app/src/main/AndroidManifest.xml:49:17-81
	android:name
		ADDED from /Users/tuyendn/Desktop/Duc/tuibagang-android/app/src/main/AndroidManifest.xml:49:25-78
action#com.google.android.c2dm.intent.REGISTRATION
ADDED from /Users/tuyendn/Desktop/Duc/tuibagang-android/app/src/main/AndroidManifest.xml:50:17-86
	android:name
		ADDED from /Users/tuyendn/Desktop/Duc/tuibagang-android/app/src/main/AndroidManifest.xml:50:25-83
category#com.kiemtien.tuibagang
ADDED from /Users/tuyendn/Desktop/Duc/tuibagang-android/app/src/main/AndroidManifest.xml:51:17-67
	android:name
		ADDED from /Users/tuyendn/Desktop/Duc/tuibagang-android/app/src/main/AndroidManifest.xml:51:27-64
service#com.kiemtien.tuibagang.gcm.GcmIntentService
ADDED from /Users/tuyendn/Desktop/Duc/tuibagang-android/app/src/main/AndroidManifest.xml:54:9-79
	android:name
		ADDED from /Users/tuyendn/Desktop/Duc/tuibagang-android/app/src/main/AndroidManifest.xml:54:18-76
uses-sdk
INJECTED from /Users/tuyendn/Desktop/Duc/tuibagang-android/app/src/main/AndroidManifest.xml reason: use-sdk injection requested
MERGED from [com.android.support:appcompat-v7:23.3.0] /Users/tuyendn/Desktop/Duc/tuibagang-android/app/build/intermediates/exploded-aar/com.android.support/appcompat-v7/23.3.0/AndroidManifest.xml:21:5-23:78
MERGED from [com.android.support:support-vector-drawable:23.3.0] /Users/tuyendn/Desktop/Duc/tuibagang-android/app/build/intermediates/exploded-aar/com.android.support/support-vector-drawable/23.3.0/AndroidManifest.xml:5:5-43
MERGED from [com.android.support:support-v4:23.3.0] /Users/tuyendn/Desktop/Duc/tuibagang-android/app/build/intermediates/exploded-aar/com.android.support/support-v4/23.3.0/AndroidManifest.xml:20:5-43
MERGED from [com.android.support:animated-vector-drawable:23.3.0] /Users/tuyendn/Desktop/Duc/tuibagang-android/app/build/intermediates/exploded-aar/com.android.support/animated-vector-drawable/23.3.0/AndroidManifest.xml:5:5-44
MERGED from [com.android.support:support-vector-drawable:23.3.0] /Users/tuyendn/Desktop/Duc/tuibagang-android/app/build/intermediates/exploded-aar/com.android.support/support-vector-drawable/23.3.0/AndroidManifest.xml:5:5-43
MERGED from [com.android.support:support-v4:23.3.0] /Users/tuyendn/Desktop/Duc/tuibagang-android/app/build/intermediates/exploded-aar/com.android.support/support-v4/23.3.0/AndroidManifest.xml:20:5-43
MERGED from [com.android.support:support-v4:23.3.0] /Users/tuyendn/Desktop/Duc/tuibagang-android/app/build/intermediates/exploded-aar/com.android.support/support-v4/23.3.0/AndroidManifest.xml:20:5-43
MERGED from [com.android.support:design:23.3.0] /Users/tuyendn/Desktop/Duc/tuibagang-android/app/build/intermediates/exploded-aar/com.android.support/design/23.3.0/AndroidManifest.xml:20:5-43
MERGED from [com.android.support:appcompat-v7:23.3.0] /Users/tuyendn/Desktop/Duc/tuibagang-android/app/build/intermediates/exploded-aar/com.android.support/appcompat-v7/23.3.0/AndroidManifest.xml:21:5-23:78
MERGED from [com.android.support:support-vector-drawable:23.3.0] /Users/tuyendn/Desktop/Duc/tuibagang-android/app/build/intermediates/exploded-aar/com.android.support/support-vector-drawable/23.3.0/AndroidManifest.xml:5:5-43
MERGED from [com.android.support:support-v4:23.3.0] /Users/tuyendn/Desktop/Duc/tuibagang-android/app/build/intermediates/exploded-aar/com.android.support/support-v4/23.3.0/AndroidManifest.xml:20:5-43
MERGED from [com.android.support:animated-vector-drawable:23.3.0] /Users/tuyendn/Desktop/Duc/tuibagang-android/app/build/intermediates/exploded-aar/com.android.support/animated-vector-drawable/23.3.0/AndroidManifest.xml:5:5-44
MERGED from [com.android.support:support-vector-drawable:23.3.0] /Users/tuyendn/Desktop/Duc/tuibagang-android/app/build/intermediates/exploded-aar/com.android.support/support-vector-drawable/23.3.0/AndroidManifest.xml:5:5-43
MERGED from [com.android.support:support-v4:23.3.0] /Users/tuyendn/Desktop/Duc/tuibagang-android/app/build/intermediates/exploded-aar/com.android.support/support-v4/23.3.0/AndroidManifest.xml:20:5-43
MERGED from [com.android.support:support-v4:23.3.0] /Users/tuyendn/Desktop/Duc/tuibagang-android/app/build/intermediates/exploded-aar/com.android.support/support-v4/23.3.0/AndroidManifest.xml:20:5-43
MERGED from [com.android.support:support-v4:23.3.0] /Users/tuyendn/Desktop/Duc/tuibagang-android/app/build/intermediates/exploded-aar/com.android.support/support-v4/23.3.0/AndroidManifest.xml:20:5-43
MERGED from [com.android.support:recyclerview-v7:23.3.0] /Users/tuyendn/Desktop/Duc/tuibagang-android/app/build/intermediates/exploded-aar/com.android.support/recyclerview-v7/23.3.0/AndroidManifest.xml:20:5-43
MERGED from [com.android.support:support-v4:23.3.0] /Users/tuyendn/Desktop/Duc/tuibagang-android/app/build/intermediates/exploded-aar/com.android.support/support-v4/23.3.0/AndroidManifest.xml:20:5-43
MERGED from [com.google.android.gms:play-services-ads:8.3.0] /Users/tuyendn/Desktop/Duc/tuibagang-android/app/build/intermediates/exploded-aar/com.google.android.gms/play-services-ads/8.3.0/AndroidManifest.xml:23:5-42
MERGED from [com.google.android.gms:play-services-basement:8.3.0] /Users/tuyendn/Desktop/Duc/tuibagang-android/app/build/intermediates/exploded-aar/com.google.android.gms/play-services-basement/8.3.0/AndroidManifest.xml:18:5-42
MERGED from [com.android.support:support-v4:23.3.0] /Users/tuyendn/Desktop/Duc/tuibagang-android/app/build/intermediates/exploded-aar/com.android.support/support-v4/23.3.0/AndroidManifest.xml:20:5-43
MERGED from [com.google.android.gms:play-services-gcm:8.3.0] /Users/tuyendn/Desktop/Duc/tuibagang-android/app/build/intermediates/exploded-aar/com.google.android.gms/play-services-gcm/8.3.0/AndroidManifest.xml:18:5-42
MERGED from [com.google.android.gms:play-services-base:8.3.0] /Users/tuyendn/Desktop/Duc/tuibagang-android/app/build/intermediates/exploded-aar/com.google.android.gms/play-services-base/8.3.0/AndroidManifest.xml:18:5-42
MERGED from [com.google.android.gms:play-services-basement:8.3.0] /Users/tuyendn/Desktop/Duc/tuibagang-android/app/build/intermediates/exploded-aar/com.google.android.gms/play-services-basement/8.3.0/AndroidManifest.xml:18:5-42
MERGED from [com.android.support:support-v4:23.3.0] /Users/tuyendn/Desktop/Duc/tuibagang-android/app/build/intermediates/exploded-aar/com.android.support/support-v4/23.3.0/AndroidManifest.xml:20:5-43
MERGED from [com.google.android.gms:play-services-measurement:8.3.0] /Users/tuyendn/Desktop/Duc/tuibagang-android/app/build/intermediates/exploded-aar/com.google.android.gms/play-services-measurement/8.3.0/AndroidManifest.xml:18:5-42
MERGED from [com.google.android.gms:play-services-basement:8.3.0] /Users/tuyendn/Desktop/Duc/tuibagang-android/app/build/intermediates/exploded-aar/com.google.android.gms/play-services-basement/8.3.0/AndroidManifest.xml:18:5-42
MERGED from [com.android.support:support-v4:23.3.0] /Users/tuyendn/Desktop/Duc/tuibagang-android/app/build/intermediates/exploded-aar/com.android.support/support-v4/23.3.0/AndroidManifest.xml:20:5-43
MERGED from [com.facebook.android:facebook-android-sdk:4.7.0] /Users/tuyendn/Desktop/Duc/tuibagang-android/app/build/intermediates/exploded-aar/com.facebook.android/facebook-android-sdk/4.7.0/AndroidManifest.xml:24:5-26:41
MERGED from [com.android.support:support-v4:23.3.0] /Users/tuyendn/Desktop/Duc/tuibagang-android/app/build/intermediates/exploded-aar/com.android.support/support-v4/23.3.0/AndroidManifest.xml:20:5-43
MERGED from [com.github.orangegangsters:swipy:1.2.0] /Users/tuyendn/Desktop/Duc/tuibagang-android/app/build/intermediates/exploded-aar/com.github.orangegangsters/swipy/1.2.0/AndroidManifest.xml:7:5-9:41
MERGED from [org.lucasr.twowayview:twowayview:0.1.4] /Users/tuyendn/Desktop/Duc/tuibagang-android/app/build/intermediates/exploded-aar/org.lucasr.twowayview/twowayview/0.1.4/AndroidManifest.xml:22:5-24:41
MERGED from [com.android.support:support-v4:23.3.0] /Users/tuyendn/Desktop/Duc/tuibagang-android/app/build/intermediates/exploded-aar/com.android.support/support-v4/23.3.0/AndroidManifest.xml:20:5-43
	android:targetSdkVersion
		INJECTED from /Users/tuyendn/Desktop/Duc/tuibagang-android/app/src/main/AndroidManifest.xml
		INJECTED from /Users/tuyendn/Desktop/Duc/tuibagang-android/app/src/main/AndroidManifest.xml
	android:minSdkVersion
		INJECTED from /Users/tuyendn/Desktop/Duc/tuibagang-android/app/src/main/AndroidManifest.xml
		INJECTED from /Users/tuyendn/Desktop/Duc/tuibagang-android/app/src/main/AndroidManifest.xml
	tools:overrideLibrary
		ADDED from [com.android.support:appcompat-v7:23.3.0] /Users/tuyendn/Desktop/Duc/tuibagang-android/app/build/intermediates/exploded-aar/com.android.support/appcompat-v7/23.3.0/AndroidManifest.xml:23:9-75
uses-permission#android.permission.ACCESS_NETWORK_STATE
ADDED from [com.google.android.gms:play-services-ads:8.3.0] /Users/tuyendn/Desktop/Duc/tuibagang-android/app/build/intermediates/exploded-aar/com.google.android.gms/play-services-ads/8.3.0/AndroidManifest.xml:21:5-78
MERGED from [com.google.android.gms:play-services-measurement:8.3.0] /Users/tuyendn/Desktop/Duc/tuibagang-android/app/build/intermediates/exploded-aar/com.google.android.gms/play-services-measurement/8.3.0/AndroidManifest.xml:22:5-79
	android:name
		ADDED from [com.google.android.gms:play-services-ads:8.3.0] /Users/tuyendn/Desktop/Duc/tuibagang-android/app/build/intermediates/exploded-aar/com.google.android.gms/play-services-ads/8.3.0/AndroidManifest.xml:21:22-76
activity#com.google.android.gms.ads.AdActivity
ADDED from [com.google.android.gms:play-services-ads:8.3.0] /Users/tuyendn/Desktop/Duc/tuibagang-android/app/build/intermediates/exploded-aar/com.google.android.gms/play-services-ads/8.3.0/AndroidManifest.xml:26:9-29:64
	android:configChanges
		ADDED from [com.google.android.gms:play-services-ads:8.3.0] /Users/tuyendn/Desktop/Duc/tuibagang-android/app/build/intermediates/exploded-aar/com.google.android.gms/play-services-ads/8.3.0/AndroidManifest.xml:28:13-122
	android:theme
		ADDED from [com.google.android.gms:play-services-ads:8.3.0] /Users/tuyendn/Desktop/Duc/tuibagang-android/app/build/intermediates/exploded-aar/com.google.android.gms/play-services-ads/8.3.0/AndroidManifest.xml:29:13-61
	android:name
		ADDED from [com.google.android.gms:play-services-ads:8.3.0] /Users/tuyendn/Desktop/Duc/tuibagang-android/app/build/intermediates/exploded-aar/com.google.android.gms/play-services-ads/8.3.0/AndroidManifest.xml:27:13-65
activity#com.google.android.gms.ads.purchase.InAppPurchaseActivity
ADDED from [com.google.android.gms:play-services-ads:8.3.0] /Users/tuyendn/Desktop/Duc/tuibagang-android/app/build/intermediates/exploded-aar/com.google.android.gms/play-services-ads/8.3.0/AndroidManifest.xml:30:9-31:52
	android:theme
		ADDED from [com.google.android.gms:play-services-ads:8.3.0] /Users/tuyendn/Desktop/Duc/tuibagang-android/app/build/intermediates/exploded-aar/com.google.android.gms/play-services-ads/8.3.0/AndroidManifest.xml:31:13-50
	android:name
		ADDED from [com.google.android.gms:play-services-ads:8.3.0] /Users/tuyendn/Desktop/Duc/tuibagang-android/app/build/intermediates/exploded-aar/com.google.android.gms/play-services-ads/8.3.0/AndroidManifest.xml:30:19-91
meta-data#com.google.android.gms.version
ADDED from [com.google.android.gms:play-services-basement:8.3.0] /Users/tuyendn/Desktop/Duc/tuibagang-android/app/build/intermediates/exploded-aar/com.google.android.gms/play-services-basement/8.3.0/AndroidManifest.xml:21:9-23:69
MERGED from [com.google.android.gms:play-services-basement:8.3.0] /Users/tuyendn/Desktop/Duc/tuibagang-android/app/build/intermediates/exploded-aar/com.google.android.gms/play-services-basement/8.3.0/AndroidManifest.xml:21:9-23:69
MERGED from [com.google.android.gms:play-services-basement:8.3.0] /Users/tuyendn/Desktop/Duc/tuibagang-android/app/build/intermediates/exploded-aar/com.google.android.gms/play-services-basement/8.3.0/AndroidManifest.xml:21:9-23:69
	android:name
		ADDED from [com.google.android.gms:play-services-basement:8.3.0] /Users/tuyendn/Desktop/Duc/tuibagang-android/app/build/intermediates/exploded-aar/com.google.android.gms/play-services-basement/8.3.0/AndroidManifest.xml:22:13-58
	android:value
		ADDED from [com.google.android.gms:play-services-basement:8.3.0] /Users/tuyendn/Desktop/Duc/tuibagang-android/app/build/intermediates/exploded-aar/com.google.android.gms/play-services-basement/8.3.0/AndroidManifest.xml:23:13-66
uses-permission#com.google.android.c2dm.permission.RECEIVE
ADDED from [com.google.android.gms:play-services-gcm:8.3.0] /Users/tuyendn/Desktop/Duc/tuibagang-android/app/build/intermediates/exploded-aar/com.google.android.gms/play-services-gcm/8.3.0/AndroidManifest.xml:21:5-82
	android:name
		ADDED from [com.google.android.gms:play-services-gcm:8.3.0] /Users/tuyendn/Desktop/Duc/tuibagang-android/app/build/intermediates/exploded-aar/com.google.android.gms/play-services-gcm/8.3.0/AndroidManifest.xml:21:22-79
uses-permission#android.permission.WAKE_LOCK
ADDED from [com.google.android.gms:play-services-measurement:8.3.0] /Users/tuyendn/Desktop/Duc/tuibagang-android/app/build/intermediates/exploded-aar/com.google.android.gms/play-services-measurement/8.3.0/AndroidManifest.xml:24:5-67
	android:name
		ADDED from [com.google.android.gms:play-services-measurement:8.3.0] /Users/tuyendn/Desktop/Duc/tuibagang-android/app/build/intermediates/exploded-aar/com.google.android.gms/play-services-measurement/8.3.0/AndroidManifest.xml:24:22-65
provider#com.google.android.gms.measurement.AppMeasurementContentProvider
ADDED from [com.google.android.gms:play-services-measurement:8.3.0] /Users/tuyendn/Desktop/Duc/tuibagang-android/app/build/intermediates/exploded-aar/com.google.android.gms/play-services-measurement/8.3.0/AndroidManifest.xml:28:7-31:37
	android:exported
		ADDED from [com.google.android.gms:play-services-measurement:8.3.0] /Users/tuyendn/Desktop/Duc/tuibagang-android/app/build/intermediates/exploded-aar/com.google.android.gms/play-services-measurement/8.3.0/AndroidManifest.xml:31:11-35
	android:authorities
		ADDED from [com.google.android.gms:play-services-measurement:8.3.0] /Users/tuyendn/Desktop/Duc/tuibagang-android/app/build/intermediates/exploded-aar/com.google.android.gms/play-services-measurement/8.3.0/AndroidManifest.xml:29:11-76
	android:name
		ADDED from [com.google.android.gms:play-services-measurement:8.3.0] /Users/tuyendn/Desktop/Duc/tuibagang-android/app/build/intermediates/exploded-aar/com.google.android.gms/play-services-measurement/8.3.0/AndroidManifest.xml:30:11-90
receiver#com.google.android.gms.measurement.AppMeasurementReceiver
ADDED from [com.google.android.gms:play-services-measurement:8.3.0] /Users/tuyendn/Desktop/Duc/tuibagang-android/app/build/intermediates/exploded-aar/com.google.android.gms/play-services-measurement/8.3.0/AndroidManifest.xml:33:7-39:18
	android:enabled
		ADDED from [com.google.android.gms:play-services-measurement:8.3.0] /Users/tuyendn/Desktop/Duc/tuibagang-android/app/build/intermediates/exploded-aar/com.google.android.gms/play-services-measurement/8.3.0/AndroidManifest.xml:35:11-33
	android:name
		ADDED from [com.google.android.gms:play-services-measurement:8.3.0] /Users/tuyendn/Desktop/Duc/tuibagang-android/app/build/intermediates/exploded-aar/com.google.android.gms/play-services-measurement/8.3.0/AndroidManifest.xml:34:11-83
intent-filter#com.google.android.gms.measurement.UPLOAD
ADDED from [com.google.android.gms:play-services-measurement:8.3.0] /Users/tuyendn/Desktop/Duc/tuibagang-android/app/build/intermediates/exploded-aar/com.google.android.gms/play-services-measurement/8.3.0/AndroidManifest.xml:36:9-38:25
action#com.google.android.gms.measurement.UPLOAD
ADDED from [com.google.android.gms:play-services-measurement:8.3.0] /Users/tuyendn/Desktop/Duc/tuibagang-android/app/build/intermediates/exploded-aar/com.google.android.gms/play-services-measurement/8.3.0/AndroidManifest.xml:37:11-77
	android:name
		ADDED from [com.google.android.gms:play-services-measurement:8.3.0] /Users/tuyendn/Desktop/Duc/tuibagang-android/app/build/intermediates/exploded-aar/com.google.android.gms/play-services-measurement/8.3.0/AndroidManifest.xml:37:19-75
service#com.google.android.gms.measurement.AppMeasurementService
ADDED from [com.google.android.gms:play-services-measurement:8.3.0] /Users/tuyendn/Desktop/Duc/tuibagang-android/app/build/intermediates/exploded-aar/com.google.android.gms/play-services-measurement/8.3.0/AndroidManifest.xml:41:7-44:37
	android:exported
		ADDED from [com.google.android.gms:play-services-measurement:8.3.0] /Users/tuyendn/Desktop/Duc/tuibagang-android/app/build/intermediates/exploded-aar/com.google.android.gms/play-services-measurement/8.3.0/AndroidManifest.xml:44:11-35
	android:enabled
		ADDED from [com.google.android.gms:play-services-measurement:8.3.0] /Users/tuyendn/Desktop/Duc/tuibagang-android/app/build/intermediates/exploded-aar/com.google.android.gms/play-services-measurement/8.3.0/AndroidManifest.xml:43:11-33
	android:name
		ADDED from [com.google.android.gms:play-services-measurement:8.3.0] /Users/tuyendn/Desktop/Duc/tuibagang-android/app/build/intermediates/exploded-aar/com.google.android.gms/play-services-measurement/8.3.0/AndroidManifest.xml:42:11-82
